{
    "KPlugin": {
        "Description": "Apply a power management profile",
        "Description[ar]": "طبّق تشكيلة إدارة الطاقة",
        "Description[be]": "Ужыванне профілю кіравання сілкаваннем",
        "Description[bg]": "Прилагане на профил на управление на захранването",
        "Description[ca@valencia]": "Aplica un perfil de gestió de l'energia",
        "Description[ca]": "Aplica un perfil de gestió d'energia",
        "Description[cs]": "Použít profil správy napájení",
        "Description[de]": "Ein Energieverwaltungsprofil anwenden",
        "Description[en_GB]": "Apply a power management profile",
        "Description[eo]": "Apliki profilon pri administrado de potenco",
        "Description[es]": "Aplicar un perfil de gestión de energía",
        "Description[eu]": "Ezarri energia kudeatzeko profil bat",
        "Description[fi]": "Käytä virranhallintaprofiilia",
        "Description[fr]": "Appliquer un profil de gestion de l'énergie",
        "Description[ia]": "Applica un profilo de gestion de energia",
        "Description[it]": "Applica un profilo di gestione energetica",
        "Description[ka]": "კვების მართივს პროფილის გადატარება",
        "Description[ko]": "전원 관리 프로필 적용",
        "Description[lt]": "Taikyti energijos valdymo profilį",
        "Description[nl]": "Een energiebeheerprofiel toepassen",
        "Description[nn]": "Ta i bruk ein straumstyringsprofil",
        "Description[pa]": "ਪਾਵਰ ਇੰਤਜ਼ਾਮ ਪਰੋਫਾਇਲ ਲਾਗੂ ਕਰੋ",
        "Description[pl]": "Zastosuj tryb zarządzania zasilaniem",
        "Description[pt]": "Aplicar um perfil de gestão de energia",
        "Description[pt_BR]": "Aplicar um perfil de gerenciamento de energia",
        "Description[ru]": "Выбор и использование профиля управления питанием",
        "Description[sl]": "Uveljavi profil upravljanja z energijo",
        "Description[sv]": "Tillämpa en strömhanteringsprofil",
        "Description[ta]": "ஓர் ஆற்றல் மேலாண்மை பயன்முறையை செயல்படுத்தும்",
        "Description[tr]": "Bir güç yönetimi profili uygula",
        "Description[uk]": "Застосувати профіль керування живленням",
        "Description[x-test]": "xxApply a power management profilexx",
        "Description[zh_CN]": "应用电源管理配置方案",
        "Description[zh_TW]": "套用電源管理設定檔",
        "Icon": "preferences-system-power-management-profile",
        "Name": "Power management profile",
        "Name[ar]": "تشكيلة إدارة الطاقة",
        "Name[az]": "Enerjinin idarəsi profili",
        "Name[be]": "Профіль кіравання сілкаваннем",
        "Name[bg]": "Профил на управление на захранването",
        "Name[ca@valencia]": "Perfil de la gestió de l'energia",
        "Name[ca]": "Perfil de gestió d'energia",
        "Name[cs]": "Profil správy napájení",
        "Name[da]": "Strømstyringsprofil",
        "Name[de]": "Energieverwaltungsprofil",
        "Name[el]": "Προφίλ διαχείρισης ισχύος",
        "Name[en_GB]": "Power management profile",
        "Name[eo]": "Profilo pri administrado de potenco",
        "Name[es]": "Perfil de gestión de energía",
        "Name[eu]": "Energia-kudeaketa profila",
        "Name[fi]": "Virranhallintaprofiili",
        "Name[fr]": "Profil de gestion de l'énergie",
        "Name[hu]": "Energiagazdálkodási profil",
        "Name[ia]": "Profilo de gestion de energia",
        "Name[id]": "Profil pengelolaan daya",
        "Name[it]": "Profilo di gestione energetica",
        "Name[ka]": "ენერგიის მართვის პროფილი",
        "Name[ko]": "전원 관리 프로필",
        "Name[lt]": "Energijos valdymo profilis",
        "Name[nl]": "Energiebeheerprofiel",
        "Name[nn]": "Profil for straumstyring",
        "Name[pa]": "ਪਾਵਰ ਇੰਤਜ਼ਾਮ ਪਰੋਫਾਇਲ",
        "Name[pl]": "Tryb zarządzania zasilaniem",
        "Name[pt]": "Perfil de gestão de energia",
        "Name[pt_BR]": "Perfil de gerenciamento de energia",
        "Name[ro]": "Profil de gestiune a alimentării",
        "Name[ru]": "Профиль управления питанием",
        "Name[sk]": "Profil správy napájania",
        "Name[sl]": "Profil upravljanja z energijo",
        "Name[sv]": "Strömhanteringsprofil",
        "Name[ta]": "ஆற்றல் மேலாண்மை பயன்முறை",
        "Name[tr]": "Güç yönetimi profili",
        "Name[uk]": "Профіль керування живленням",
        "Name[x-test]": "xxPower management profilexx",
        "Name[zh_CN]": "电源管理配置方案",
        "Name[zh_TW]": "電源管理設定檔"
    },
    "X-KDE-PowerDevil-Action-ConfigPriority": 70,
    "X-KDE-PowerDevil-Action-HasRuntimeRequirement": true,
    "X-KDE-PowerDevil-Action-ID": "PowerProfile",
    "X-KDE-PowerDevil-Action-RegistersDBusInterface": true,
    "X-KDE-PowerDevil-Action-UIComponentLibrary": "powerdevilpowerprofileaction_config"
}
